\contentsline {section}{\numberline {1}introduccion}{1}{section.1}
\contentsline {subsection}{\numberline {1.1}aplicaciones}{1}{subsection.1.1}
\contentsline {subsection}{\numberline {1.2}videos}{2}{subsection.1.2}
\contentsline {section}{\numberline {2}Caso de estudio}{2}{section.2}
\contentsline {subsection}{\numberline {2.1}dataset}{2}{subsection.2.1}
\contentsline {subsection}{\numberline {2.2}graficos}{4}{subsection.2.2}
\contentsline {section}{\numberline {3}Experimento}{5}{section.3}
\contentsline {subsection}{\numberline {3.1}Pruebas}{6}{subsection.3.1}
\contentsline {subsection}{\numberline {3.2}Graficacion con gnuplot}{7}{subsection.3.2}
\contentsline {subsection}{\numberline {3.3}validacion}{8}{subsection.3.3}
\contentsline {section}{\numberline {4}repositorio}{9}{section.4}
\contentsline {section}{\numberline {5}Conclusiones}{10}{section.5}
